true 4 2
Player2
Stock 24
12 11 10 9 8 7 6 5 4 3 2 1 12 11 10 9 8 7 6 5
4 3 2 1
Hand 0

Discard0 0

Discard1 0

Discard2 0

Discard3 0

Player3
Stock 24
12 11 10 9 8 7 6 5 4 3 2 1 12 11 10 9 8 7 6 5
4 3 2 1
Hand 0

Discard0 0

Discard1 0

Discard2 0

Discard3 0

Player0
Stock 12
12 11 10 9 8 7 6 5 4 3 2 1
Hand 4
0 0 0 0
Discard0 0

Discard1 0

Discard2 1
0
Discard3 0

Player1
Stock 15
12 11 10 9 8 7 6 5 4 3 2 1 12 11 10
Hand 1
0
Discard0 0

Discard1 0

Discard2 0

Discard3 1
0
Draw 80
4 7 9 6 3 6 12 6 2 0 1 3 7 0 12 4 2 0 10 2
8 0 5 0 11 5 9 10 7 0 7 1 8 10 3 0 2 9 4 3
0 2 5 6 5 1 0 6 11 3 12 1 8 7 6 3 10 2 8 7
9 9 0 4 5 10 9 4 12 5 8 1 0 11 1 4 12 11 11 8
Build_a 0

Build_b 0

Build_c 0

Build_d 0

